2017-02-20 07:51:38 [scrapy] DEBUG: Crawled (200) <GET http://www.dmoz.org/Computers/Programming/Languages/Ada/> (referer: None)
2017-02-20 07:51:38 [scrapy] INFO: Closing spider (finished)
2017-02-20 07:51:38 [scrapy] INFO: Dumping Scrapy stats:
{'downloader/request_bytes': 246,
 'downloader/request_count': 1,
 'downloader/request_method_count/GET': 1,
 'downloader/response_bytes': 9293,
 'downloader/response_count': 1,
 'downloader/response_status_count/200': 1,
 'finish_reason': 'finished',
 'finish_time': datetime.datetime(2017, 2, 20, 7, 51, 38, 499033),
 'log_count/DEBUG': 1,
 'log_count/INFO': 6,
 'response_received_count': 1,
 'scheduler/dequeued': 1,
 'scheduler/dequeued/memory': 1,
 'scheduler/enqueued': 1,
 'scheduler/enqueued/memory': 1,
 'start_time': datetime.datetime(2017, 2, 20, 7, 51, 37, 512909)}
2017-02-20 07:51:38 [scrapy] INFO: Spider closed (finished)
